<svg width="30" height="30" viewBox="0 0 30 30" fill="none" xmlns="http://www.w3.org/2000/svg">
<g clip-path="url(#clip0_40_2)">
<path d="M15 0C6.70909 0 0 6.70909 0 15C0 23.2909 6.70909 30 15 30C23.2909 30 30 23.2909 30 15C30 6.70909 23.2909 0 15 0ZM15 27.2727C8.22273 27.2727 2.72727 21.7773 2.72727 15C2.72727 8.22273 8.22273 2.72727 15 2.72727C21.7773 2.72727 27.2727 8.22273 27.2727 15C27.2727 21.7773 21.7773 27.2727 15 27.2727Z" fill="#FF099F"/>
<path d="M24.5454 13.6364H16.3636V8.18181C16.3636 7.43181 15.75 6.81818 15 6.81818C14.25 6.81818 13.6364 7.43181 13.6364 8.18181V15C13.6364 15.75 14.25 16.3636 15 16.3636H24.5454C25.2954 16.3636 25.9091 15.75 25.9091 15C25.9091 14.25 25.2954 13.6364 24.5454 13.6364Z" fill="#FF099F"/>
</g>
<defs>
<clipPath id="clip0_40_2">
<rect width="30" height="30" fill="white"/>
</clipPath>
</defs>
</svg>
